<?xml version="1.0" encoding="UTF-8"?>
<svg width="32px" height="32px" viewBox="0 0 32 32" version="1.1" xmlns="http://www.w3.org/2000/svg" xmlns:xlink="http://www.w3.org/1999/xlink">
    <!-- Generator: sketchtool 51 (57462) - http://www.bohemiancoding.com/sketch -->
    <title>21BAB452-683D-43A4-A6B4-ED84127B146B</title>
    <desc>Created with sketchtool.</desc>
    <defs></defs>
    <g id="Page-1" stroke="none" stroke-width="1" fill="none" fill-rule="evenodd">
        <g id="hackathon_koshoteam_02_newssummary" transform="translate(-872.000000, -34.000000)" stroke="#FF7D3A" stroke-width="4">
            <g id="Group-11" transform="translate(872.000000, 34.000000)">
                <g id="Group-10" transform="translate(5.000000, 4.000000)">
                    <path d="M14.8,15.8333333 L22,25" id="Line" stroke-linecap="round"></path>
                    <circle id="Oval-3" cx="9" cy="9" r="9"></circle>
                </g>
            </g>
        </g>
    </g>
</svg>